sim/waveform.vcd
$version Generated by VerilatedVcd $end
$timescale 1ps $end
 $scope module TOP $end
  $scope module riscv_pkg $end
   $var wire 32 . XLEN [31:0] $end
   $var wire 32 / ILEN [31:0] $end
   $var wire 64 0 RESET_VECTOR [63:0] $end
  $upscope $end
  $scope module tb_pc $end
   $var wire 1 # clk_i $end
   $var wire 1 $ rst_ni $end
   $var wire 1 % load_pc_i $end
   $var wire 64 & next_pc_i [63:0] $end
   $var wire 64 ( pc_o [63:0] $end
   $scope module dut $end
    $var wire 1 # clk_i $end
    $var wire 1 $ rst_ni $end
    $var wire 1 % load_pc_i $end
    $var wire 64 & next_pc_i [63:0] $end
    $var wire 64 ( pc_o [63:0] $end
    $var wire 64 , PC_INCREMENT [63:0] $end
    $var wire 64 ( pc_q [63:0] $end
    $var wire 64 * pc_d [63:0] $end
   $upscope $end
  $upscope $end
 $upscope $end
$enddefinitions $end


#0
0#
0$
0%
b0000000000000000000000000000000000000000000000000000000000000000 &
b0000000000000000000000000000000000000000000000000000000000000000 (
b0000000000000000000000000000000000000000000000000000000000000100 *
b0000000000000000000000000000000000000000000000000000000000000100 ,
b00000000000000000000000001000000 .
b00000000000000000000000000100000 /
b0000000000000000000000000000000010000000000000000000000000000000 0
#5000
1#
b0000000000000000000000000000000010000000000000000000000000000000 (
b0000000000000000000000000000000010000000000000000000000000000100 *
#10000
0#
#15000
1#
#20000
0#
1$
#25000
1#
b0000000000000000000000000000000010000000000000000000000000000100 (
b0000000000000000000000000000000010000000000000000000000000001000 *
#30000
0#
#35000
1#
b0000000000000000000000000000000010000000000000000000000000001000 (
b0000000000000000000000000000000010000000000000000000000000001100 *
#40000
0#
#45000
1#
b0000000000000000000000000000000010000000000000000000000000001100 (
b0000000000000000000000000000000010000000000000000000000000010000 *
#50000
0#
#55000
1#
b0000000000000000000000000000000010000000000000000000000000010000 (
b0000000000000000000000000000000010000000000000000000000000010100 *
#60000
0#
#65000
1#
1%
b0000000000000000000000000000000010000000000000000000000100000000 &
b0000000000000000000000000000000010000000000000000000000100000000 (
b0000000000000000000000000000000010000000000000000000000100000000 *
#70000
0#
#75000
1#
0%
b0000000000000000000000000000000010000000000000000000000100000100 (
b0000000000000000000000000000000010000000000000000000000100001000 *
#80000
0#
#85000
1#
b0000000000000000000000000000000010000000000000000000000100001000 (
b0000000000000000000000000000000010000000000000000000000100001100 *
#90000
0#
#95000
1#
b0000000000000000000000000000000010000000000000000000000100001100 (
b0000000000000000000000000000000010000000000000000000000100010000 *
#100000
0#
#105000
1#
b0000000000000000000000000000000010000000000000000000000100010000 (
b0000000000000000000000000000000010000000000000000000000100010100 *
#110000
0#
#115000
1#
b0000000000000000000000000000000010000000000000000000000100010100 (
b0000000000000000000000000000000010000000000000000000000100011000 *
#120000
0#
#125000
1#
b0000000000000000000000000000000010000000000000000000000100011000 (
b0000000000000000000000000000000010000000000000000000000100011100 *
